00:00:00.772046 VirtualBox GUI VM Selector Window 6.1.38 r153438 linux.amd64 (Sep  1 2022 19:47:47) release log
00:00:00.772048 Log opened 2022-09-20T00:40:01.396442000Z
00:00:00.772049 Build Type: release
00:00:00.772052 OS Product: Linux
00:00:00.772054 OS Release: 5.19.9-arch1-1
00:00:00.772056 OS Version: #1 SMP PREEMPT_DYNAMIC Thu, 15 Sep 2022 16:08:26 +0000
00:00:00.772077 DMI Product Name: 20FAS22W00
00:00:00.772089 DMI Product Version: ThinkPad T460s
00:00:00.772094 Firmware type: UEFI
00:00:00.772520 Secure Boot: Disabled
00:00:00.772563 Host RAM: 3779MB (3.6GB) total, 3343MB (3.2GB) available
00:00:00.772566 Executable: /usr/lib/virtualbox/VirtualBox
00:00:00.772566 Process ID: 1317
00:00:00.772567 Package type: LINUX_64BITS_GENERIC (OSE)
00:00:00.772592 Qt version: 5.15.6
00:00:00.849340 GUI: UIMediumEnumerator: Medium-enumeration started...
00:00:00.849401 GUI: UIMediumEnumerator: Medium-enumeration finished!
00:00:02.115473 GUI: UIDesktopWidgetWatchdog::sltHandleHostScreenAvailableGeometryCalculated: Screen 0 work area is actually resized to: 16x40 x 1884x1020
