00:00:00.379437 VirtualBox GUI VM Selector Window 6.1.38 r153438 linux.amd64 (Sep  1 2022 19:47:47) release log
00:00:00.379439 Log opened 2022-09-19T23:55:51.722145000Z
00:00:00.379439 Build Type: release
00:00:00.379442 OS Product: Linux
00:00:00.379444 OS Release: 5.19.9-arch1-1
00:00:00.379446 OS Version: #1 SMP PREEMPT_DYNAMIC Thu, 15 Sep 2022 16:08:26 +0000
00:00:00.379466 DMI Product Name: 20FAS22W00
00:00:00.379475 DMI Product Version: ThinkPad T460s
00:00:00.379479 Firmware type: UEFI
00:00:00.379901 Secure Boot: Disabled
00:00:00.379973 Host RAM: 3779MB (3.6GB) total, 3007MB (2.9GB) available
00:00:00.379976 Executable: /usr/lib/virtualbox/VirtualBox
00:00:00.379976 Process ID: 6898
00:00:00.379976 Package type: LINUX_64BITS_GENERIC (OSE)
00:00:00.379996 Qt version: 5.15.6
00:00:00.420723 GUI: UIMediumEnumerator: Medium-enumeration started...
00:00:00.420761 GUI: UIMediumEnumerator: Medium-enumeration finished!
00:00:00.866005 GUI: UIDesktopWidgetWatchdog::sltHandleHostScreenAvailableGeometryCalculated: Screen 0 work area is actually resized to: 16x40 x 1884x1020
