00:00:00.822279 VirtualBox GUI VM Selector Window 6.1.38 r153438 linux.amd64 (Sep  1 2022 19:47:47) release log
00:00:00.822284 Log opened 2022-09-20T01:15:51.813661000Z
00:00:00.822286 Build Type: release
00:00:00.822291 OS Product: Linux
00:00:00.822296 OS Release: 5.19.9-arch1-1
00:00:00.822301 OS Version: #1 SMP PREEMPT_DYNAMIC Thu, 15 Sep 2022 16:08:26 +0000
00:00:00.822338 DMI Product Name: 20FAS22W00
00:00:00.822360 DMI Product Version: ThinkPad T460s
00:00:00.822370 Firmware type: UEFI
00:00:00.822959 Secure Boot: Disabled
00:00:00.823037 Host RAM: 3779MB (3.6GB) total, 3352MB (3.2GB) available
00:00:00.823042 Executable: /usr/lib/virtualbox/VirtualBox
00:00:00.823043 Process ID: 1780
00:00:00.823044 Package type: LINUX_64BITS_GENERIC (OSE)
00:00:00.823087 Qt version: 5.15.6
00:00:00.891902 GUI: UIMediumEnumerator: Medium-enumeration started...
00:00:00.891949 GUI: UIMediumEnumerator: Medium-enumeration finished!
00:00:02.122737 GUI: UIDesktopWidgetWatchdog::sltHandleHostScreenAvailableGeometryCalculated: Screen 0 work area is actually resized to: 16x40 x 1884x1020
