00:00:00.493032 VirtualBox GUI VM Selector Window 6.1.38 r153438 linux.amd64 (Sep  1 2022 19:47:47) release log
00:00:00.493034 Log opened 2022-09-20T00:20:20.781537000Z
00:00:00.493035 Build Type: release
00:00:00.493038 OS Product: Linux
00:00:00.493039 OS Release: 5.19.9-arch1-1
00:00:00.493041 OS Version: #1 SMP PREEMPT_DYNAMIC Thu, 15 Sep 2022 16:08:26 +0000
00:00:00.493063 DMI Product Name: 20FAS22W00
00:00:00.493085 DMI Product Version: ThinkPad T460s
00:00:00.493090 Firmware type: UEFI
00:00:00.493539 Secure Boot: Disabled
00:00:00.493593 Host RAM: 3779MB (3.6GB) total, 2255MB (2.2GB) available
00:00:00.493596 Executable: /usr/lib/virtualbox/VirtualBox
00:00:00.493596 Process ID: 22233
00:00:00.493597 Package type: LINUX_64BITS_GENERIC (OSE)
00:00:00.493658 Qt version: 5.15.6
00:00:00.517042 GUI: UIMediumEnumerator: Medium-enumeration started...
00:00:00.517069 GUI: UIMediumEnumerator: Medium-enumeration finished!
00:00:00.957513 GUI: UIDesktopWidgetWatchdog::sltHandleHostScreenAvailableGeometryCalculated: Screen 0 work area is actually resized to: 16x40 x 932x1020
