00:00:00.378653 VirtualBox GUI VM Selector Window 6.1.38 r153438 linux.amd64 (Sep  1 2022 19:47:47) release log
00:00:00.378654 Log opened 2022-09-19T23:58:07.324348000Z
00:00:00.378655 Build Type: release
00:00:00.378657 OS Product: Linux
00:00:00.378659 OS Release: 5.19.9-arch1-1
00:00:00.378660 OS Version: #1 SMP PREEMPT_DYNAMIC Thu, 15 Sep 2022 16:08:26 +0000
00:00:00.378677 DMI Product Name: 20FAS22W00
00:00:00.378685 DMI Product Version: ThinkPad T460s
00:00:00.378689 Firmware type: UEFI
00:00:00.379114 Secure Boot: Disabled
00:00:00.379164 Host RAM: 3779MB (3.6GB) total, 2738MB (2.6GB) available
00:00:00.379168 Executable: /usr/lib/virtualbox/VirtualBox
00:00:00.379169 Process ID: 8389
00:00:00.379169 Package type: LINUX_64BITS_GENERIC (OSE)
00:00:00.379197 Qt version: 5.15.6
00:00:00.391691 GUI: UIMediumEnumerator: Medium-enumeration started...
00:00:00.391718 GUI: UIMediumEnumerator: Medium-enumeration finished!
00:00:00.873245 GUI: UIDesktopWidgetWatchdog::sltHandleHostScreenAvailableGeometryCalculated: Screen 0 work area is actually resized to: 16x40 x 932x1020
