00:00:00.853873 VirtualBox GUI VM Selector Window 6.1.38 r153438 linux.amd64 (Sep  1 2022 19:47:47) release log
00:00:00.853883 Log opened 2022-09-20T13:32:34.720115000Z
00:00:00.853886 Build Type: release
00:00:00.853896 OS Product: Linux
00:00:00.853904 OS Release: 5.19.9-arch1-1
00:00:00.853911 OS Version: #1 SMP PREEMPT_DYNAMIC Thu, 15 Sep 2022 16:08:26 +0000
00:00:00.853992 DMI Product Name: 20FAS22W00
00:00:00.854047 DMI Product Version: ThinkPad T460s
00:00:00.854081 Firmware type: UEFI
00:00:00.855501 Secure Boot: Disabled
00:00:00.855674 Host RAM: 3779MB (3.6GB) total, 2770MB (2.7GB) available
00:00:00.855686 Executable: /usr/lib/virtualbox/VirtualBox
00:00:00.855689 Process ID: 3895
00:00:00.855692 Package type: LINUX_64BITS_GENERIC (OSE)
00:00:00.855787 Qt version: 5.15.6
00:00:00.955813 GUI: UIMediumEnumerator: Medium-enumeration started...
00:00:00.955892 GUI: UIMediumEnumerator: Medium-enumeration finished!
00:00:02.177651 GUI: UIDesktopWidgetWatchdog::sltHandleHostScreenAvailableGeometryCalculated: Screen 0 work area is actually resized to: 16x40 x 932x1020
