00:00:00.000407 main     VirtualBox XPCOM Server 6.1.38 r153438 linux.amd64 (Sep  1 2022 19:47:47) release log
00:00:00.000411 main     Log opened 2022-09-19T23:58:07.135338000Z
00:00:00.000412 main     Build Type: release
00:00:00.000415 main     OS Product: Linux
00:00:00.000417 main     OS Release: 5.19.9-arch1-1
00:00:00.000419 main     OS Version: #1 SMP PREEMPT_DYNAMIC Thu, 15 Sep 2022 16:08:26 +0000
00:00:00.000458 main     DMI Product Name: 20FAS22W00
00:00:00.000472 main     DMI Product Version: ThinkPad T460s
00:00:00.000481 main     Firmware type: UEFI
00:00:00.001005 main     Secure Boot: Disabled
00:00:00.001063 main     Host RAM: 3779MB (3.6GB) total, 2751MB (2.6GB) available
00:00:00.001067 main     Executable: /usr/lib/virtualbox/VBoxSVC
00:00:00.001068 main     Process ID: 8451
00:00:00.001069 main     Package type: LINUX_64BITS_GENERIC (OSE)
00:00:00.003912 main     IPC socket path: /tmp/.vbox-thaihieu-ipc/ipcd
00:00:00.111592 nspr-2   VirtualBox: object creation starts
00:00:00.111670 nspr-2   Home directory: '/home/thaihieu/.config/VirtualBox'
00:00:00.111782 nspr-2   Loading settings file "/home/thaihieu/.config/VirtualBox/VirtualBox.xml" with version "1.12-linux"
00:00:00.126935 nspr-2   NetIfAdpCtlOut: VBoxNetAdpCtl: Error while retrieving link speed for wlp4s0: VBoxNetAdpCtl: ioctl failed: Operation not supported
00:00:00.127843 nspr-2   HostDnsMonitor: initializing
00:00:00.128133 nspr-2   NAT: resolv.conf: nameserver 192.168.17.1
00:00:00.128154 nspr-2   HostDnsMonitor: updating information
00:00:00.128174 nspr-2   HostDnsMonitor: old information
00:00:00.128179 nspr-2     no server entries
00:00:00.128183 nspr-2     no domain set
00:00:00.128188 nspr-2     no search string entries
00:00:00.128193 nspr-2   HostDnsMonitor: new information
00:00:00.128197 nspr-2     server 1: 192.168.17.1
00:00:00.128201 nspr-2     no domain set
00:00:00.128204 nspr-2     no search string entries
00:00:00.130550 nspr-2   Failed to open "/dev/vboxdrvu", errno=2, rc=VERR_VM_DRIVER_NOT_INSTALLED
00:00:00.130745 nspr-2   VD: VDInit finished with VINF_SUCCESS
00:00:00.130833 nspr-2   ERROR [COM]: aRC=NS_ERROR_FAILURE (0x80004005) aIID={027bc463-929c-40e8-bf16-fea557cd8e7e} aComponent={SystemPropertiesWrap} aText={Cannot determine default Guest Additions ISO location. Most likely they are not available}, preserve=false aResultDetail=0
00:00:00.131414 nspr-2   VirtualBox: object created
00:00:06.165488 nspr-3   Failed to open "/dev/vboxdrvu", errno=2, rc=VERR_VM_DRIVER_NOT_INSTALLED
00:00:06.167752 nspr-3   Failed to open "/dev/vboxdrvu", errno=2, rc=VERR_VM_DRIVER_NOT_INSTALLED
00:00:39.751999 nspr-2   Saving settings file "/home/thaihieu/.config/VirtualBox/VirtualBox.xml" with version "1.12-linux"
00:00:39.814952 nspr-2   Saving settings file "/home/thaihieu/.config/VirtualBox/VirtualBox.xml" with version "1.12-linux"
00:00:39.834457 nspr-3   Saving settings file "/home/thaihieu/.config/VirtualBox/VirtualBox.xml" with version "1.12-linux"
00:00:45.376020 main     VirtualBox: object deletion starts
00:00:45.376186 main     HostDnsMonitor: shutting down ...
00:00:45.376269 main     HostDnsMonitor: shut down
00:00:45.648962 Watcher  ERROR [COM]: aRC=E_ACCESSDENIED (0x80070005) aIID={d0a0163f-e254-4e5b-a1f2-011cf991c38d} aComponent={VirtualBoxWrap} aText={The object is not ready}, preserve=false aResultDetail=0
00:00:50.376353 main     {00007fd028017700} HostPowerServiceLinux::~HostPowerServiceLinux: RTThreadWait() for 5000 ms failed with VERR_TIMEOUT
00:00:50.376561 main     VirtualBox: object deleted
