00:00:00.005481 main     VirtualBox XPCOM Server 6.1.38 r153438 linux.amd64 (Sep  1 2022 19:47:47) release log
00:00:00.005488 main     Log opened 2022-09-20T01:15:51.465489000Z
00:00:00.005489 main     Build Type: release
00:00:00.005497 main     OS Product: Linux
00:00:00.005503 main     OS Release: 5.19.9-arch1-1
00:00:00.005509 main     OS Version: #1 SMP PREEMPT_DYNAMIC Thu, 15 Sep 2022 16:08:26 +0000
00:00:00.005567 main     DMI Product Name: 20FAS22W00
00:00:00.005598 main     DMI Product Version: ThinkPad T460s
00:00:00.005612 main     Firmware type: UEFI
00:00:00.006418 main     Secure Boot: Disabled
00:00:00.006539 main     Host RAM: 3779MB (3.6GB) total, 3357MB (3.2GB) available
00:00:00.006546 main     Executable: /usr/lib/virtualbox/VBoxSVC
00:00:00.006548 main     Process ID: 1839
00:00:00.006549 main     Package type: LINUX_64BITS_GENERIC (OSE)
00:00:00.011530 main     IPC socket path: /tmp/.vbox-thaihieu-ipc/ipcd
00:00:00.139791 nspr-2   VirtualBox: object creation starts
00:00:00.140100 nspr-2   Home directory: '/home/thaihieu/.config/VirtualBox'
00:00:00.144503 nspr-2   Loading settings file "/home/thaihieu/.config/VirtualBox/VirtualBox.xml" with version "1.12-linux"
00:00:00.207345 nspr-2   NetIfAdpCtlOut: VBoxNetAdpCtl: Error while retrieving link speed for wlp4s0: VBoxNetAdpCtl: ioctl failed: Operation not supported
00:00:00.212807 nspr-2   HostDnsMonitor: initializing
00:00:00.213450 nspr-2   NAT: resolv.conf: nameserver 192.168.17.1
00:00:00.213504 nspr-2   HostDnsMonitor: updating information
00:00:00.213554 nspr-2   HostDnsMonitor: old information
00:00:00.213572 nspr-2     no server entries
00:00:00.213586 nspr-2     no domain set
00:00:00.213598 nspr-2     no search string entries
00:00:00.213613 nspr-2   HostDnsMonitor: new information
00:00:00.213627 nspr-2     server 1: 192.168.17.1
00:00:00.213642 nspr-2     no domain set
00:00:00.213651 nspr-2     no search string entries
00:00:00.229719 nspr-2   VD: VDInit finished with VINF_SUCCESS
00:00:00.232136 nspr-2   ERROR [COM]: aRC=NS_ERROR_FAILURE (0x80004005) aIID={027bc463-929c-40e8-bf16-fea557cd8e7e} aComponent={SystemPropertiesWrap} aText={Cannot determine default Guest Additions ISO location. Most likely they are not available}, preserve=false aResultDetail=0
00:00:00.235148 nspr-2   VirtualBox: object created
00:00:05.081712 nspr-3   Saving settings file "/home/thaihieu/.config/VirtualBox/VirtualBox.xml" with version "1.12-linux"
00:00:05.093985 nspr-2   Saving settings file "/home/thaihieu/.config/VirtualBox/VirtualBox.xml" with version "1.12-linux"
00:00:10.631879 main     VirtualBox: object deletion starts
00:00:10.633776 main     HostDnsMonitor: shutting down ...
00:00:10.633913 main     HostDnsMonitor: shut down
00:00:10.740981 Watcher  ERROR [COM]: aRC=E_ACCESSDENIED (0x80070005) aIID={d0a0163f-e254-4e5b-a1f2-011cf991c38d} aComponent={VirtualBoxWrap} aText={The object is not ready}, preserve=false aResultDetail=0
00:00:15.634136 main     {00007f75900175d0} HostPowerServiceLinux::~HostPowerServiceLinux: RTThreadWait() for 5000 ms failed with VERR_TIMEOUT
00:00:15.635182 main     VirtualBox: object deleted
