00:00:00.005019 main     VirtualBox XPCOM Server 6.1.38 r153438 linux.amd64 (Sep  1 2022 19:47:47) release log
00:00:00.005026 main     Log opened 2022-09-20T00:40:01.103673000Z
00:00:00.005028 main     Build Type: release
00:00:00.005036 main     OS Product: Linux
00:00:00.005042 main     OS Release: 5.19.9-arch1-1
00:00:00.005049 main     OS Version: #1 SMP PREEMPT_DYNAMIC Thu, 15 Sep 2022 16:08:26 +0000
00:00:00.005108 main     DMI Product Name: 20FAS22W00
00:00:00.005143 main     DMI Product Version: ThinkPad T460s
00:00:00.005158 main     Firmware type: UEFI
00:00:00.006140 main     Secure Boot: Disabled
00:00:00.006273 main     Host RAM: 3779MB (3.6GB) total, 3350MB (3.2GB) available
00:00:00.006281 main     Executable: /usr/lib/virtualbox/VBoxSVC
00:00:00.006283 main     Process ID: 1376
00:00:00.006284 main     Package type: LINUX_64BITS_GENERIC (OSE)
00:00:00.011966 main     IPC socket path: /tmp/.vbox-thaihieu-ipc/ipcd
00:00:00.140039 nspr-2   VirtualBox: object creation starts
00:00:00.140374 nspr-2   Home directory: '/home/thaihieu/.config/VirtualBox'
00:00:00.143582 nspr-2   Loading settings file "/home/thaihieu/.config/VirtualBox/VirtualBox.xml" with version "1.12-linux"
00:00:00.206974 nspr-2   NetIfAdpCtlOut: VBoxNetAdpCtl: Error while retrieving link speed for wlp4s0: VBoxNetAdpCtl: ioctl failed: Operation not supported
00:00:00.210750 nspr-2   HostDnsMonitor: initializing
00:00:00.211089 nspr-2   NAT: resolv.conf: nameserver 192.168.17.1
00:00:00.211113 nspr-2   HostDnsMonitor: updating information
00:00:00.211130 nspr-2   HostDnsMonitor: old information
00:00:00.211135 nspr-2     no server entries
00:00:00.211140 nspr-2     no domain set
00:00:00.211149 nspr-2     no search string entries
00:00:00.211153 nspr-2   HostDnsMonitor: new information
00:00:00.211159 nspr-2     server 1: 192.168.17.1
00:00:00.211165 nspr-2     no domain set
00:00:00.211170 nspr-2     no search string entries
00:00:00.222577 nspr-2   VD: VDInit finished with VINF_SUCCESS
00:00:00.224883 nspr-2   ERROR [COM]: aRC=NS_ERROR_FAILURE (0x80004005) aIID={027bc463-929c-40e8-bf16-fea557cd8e7e} aComponent={SystemPropertiesWrap} aText={Cannot determine default Guest Additions ISO location. Most likely they are not available}, preserve=false aResultDetail=0
00:00:00.226273 nspr-2   VirtualBox: object created
00:00:40.624411 nspr-3   Saving settings file "/home/thaihieu/.config/VirtualBox/VirtualBox.xml" with version "1.12-linux"
00:00:40.646514 nspr-2   Saving settings file "/home/thaihieu/.config/VirtualBox/VirtualBox.xml" with version "1.12-linux"
00:00:40.654891 nspr-2   Saving settings file "/home/thaihieu/.config/VirtualBox/VirtualBox.xml" with version "1.12-linux"
00:00:46.192477 main     VirtualBox: object deletion starts
00:00:46.193350 main     HostDnsMonitor: shutting down ...
00:00:46.194154 main     HostDnsMonitor: shut down
00:00:46.277755 Watcher  ERROR [COM]: aRC=E_ACCESSDENIED (0x80070005) aIID={d0a0163f-e254-4e5b-a1f2-011cf991c38d} aComponent={VirtualBoxWrap} aText={The object is not ready}, preserve=false aResultDetail=0
00:00:51.194989 main     {00007f17400175d0} HostPowerServiceLinux::~HostPowerServiceLinux: RTThreadWait() for 5000 ms failed with VERR_TIMEOUT
00:00:51.196037 main     VirtualBox: object deleted
