00:00:00.000487 main     VirtualBox XPCOM Server 6.1.38 r153438 linux.amd64 (Sep  1 2022 19:47:47) release log
00:00:00.000492 main     Log opened 2022-09-20T00:20:20.570707000Z
00:00:00.000492 main     Build Type: release
00:00:00.000497 main     OS Product: Linux
00:00:00.000500 main     OS Release: 5.19.9-arch1-1
00:00:00.000503 main     OS Version: #1 SMP PREEMPT_DYNAMIC Thu, 15 Sep 2022 16:08:26 +0000
00:00:00.000572 main     DMI Product Name: 20FAS22W00
00:00:00.000594 main     DMI Product Version: ThinkPad T460s
00:00:00.000605 main     Firmware type: UEFI
00:00:00.002987 main     Secure Boot: Disabled
00:00:00.003062 main     Host RAM: 3779MB (3.6GB) total, 2248MB (2.1GB) available
00:00:00.003066 main     Executable: /usr/lib/virtualbox/VBoxSVC
00:00:00.003067 main     Process ID: 22295
00:00:00.003068 main     Package type: LINUX_64BITS_GENERIC (OSE)
00:00:00.007805 main     IPC socket path: /tmp/.vbox-thaihieu-ipc/ipcd
00:00:00.115785 nspr-2   VirtualBox: object creation starts
00:00:00.115882 nspr-2   Home directory: '/home/thaihieu/.config/VirtualBox'
00:00:00.116044 nspr-2   Loading settings file "/home/thaihieu/.config/VirtualBox/VirtualBox.xml" with version "1.12-linux"
00:00:00.151440 nspr-2   NetIfAdpCtlOut: VBoxNetAdpCtl: Error while retrieving link speed for wlp4s0: VBoxNetAdpCtl: ioctl failed: Operation not supported
00:00:00.152568 nspr-2   HostDnsMonitor: initializing
00:00:00.152789 nspr-2   NAT: resolv.conf: nameserver 192.168.17.1
00:00:00.152804 nspr-2   HostDnsMonitor: updating information
00:00:00.152820 nspr-2   HostDnsMonitor: old information
00:00:00.152824 nspr-2     no server entries
00:00:00.152828 nspr-2     no domain set
00:00:00.152831 nspr-2     no search string entries
00:00:00.152835 nspr-2   HostDnsMonitor: new information
00:00:00.152838 nspr-2     server 1: 192.168.17.1
00:00:00.152842 nspr-2     no domain set
00:00:00.152845 nspr-2     no search string entries
00:00:00.156258 nspr-2   Failed to open "/dev/vboxdrvu", errno=2, rc=VERR_VM_DRIVER_NOT_INSTALLED
00:00:00.156582 nspr-2   VD: VDInit finished with VINF_SUCCESS
00:00:00.156697 nspr-2   ERROR [COM]: aRC=NS_ERROR_FAILURE (0x80004005) aIID={027bc463-929c-40e8-bf16-fea557cd8e7e} aComponent={SystemPropertiesWrap} aText={Cannot determine default Guest Additions ISO location. Most likely they are not available}, preserve=false aResultDetail=0
00:00:00.157494 nspr-2   VirtualBox: object created
00:00:04.182184 nspr-2   Failed to open "/dev/vboxdrvu", errno=2, rc=VERR_VM_DRIVER_NOT_INSTALLED
00:00:04.183131 nspr-2   Failed to open "/dev/vboxdrvu", errno=2, rc=VERR_VM_DRIVER_NOT_INSTALLED
00:03:14.134053 nspr-2   Failed to open "/dev/vboxdrvu", errno=2, rc=VERR_VM_DRIVER_NOT_INSTALLED
00:03:14.135151 nspr-2   Failed to open "/dev/vboxdrvu", errno=2, rc=VERR_VM_DRIVER_NOT_INSTALLED
00:05:26.530824 nspr-3   Saving settings file "/home/thaihieu/.config/VirtualBox/VirtualBox.xml" with version "1.12-linux"
00:05:27.902869 nspr-3   Failed to open "/dev/vboxdrvu", errno=2, rc=VERR_VM_DRIVER_NOT_INSTALLED
00:05:27.905476 nspr-3   Failed to open "/dev/vboxdrvu", errno=2, rc=VERR_VM_DRIVER_NOT_INSTALLED
00:08:13.164905 nspr-2   Saving settings file "/home/thaihieu/.config/VirtualBox/VirtualBox.xml" with version "1.12-linux"
00:10:04.201404 nspr-2   Saving settings file "/home/thaihieu/.config/VirtualBox/VirtualBox.xml" with version "1.12-linux"
00:10:06.295096 nspr-2   Failed to open "/dev/vboxdrvu", errno=2, rc=VERR_VM_DRIVER_NOT_INSTALLED
00:10:06.298816 nspr-2   Failed to open "/dev/vboxdrvu", errno=2, rc=VERR_VM_DRIVER_NOT_INSTALLED
00:13:21.870174 nspr-2   Failed to open "/dev/vboxdrvu", errno=2, rc=VERR_VM_DRIVER_NOT_INSTALLED
00:13:21.872279 nspr-2   Failed to open "/dev/vboxdrvu", errno=2, rc=VERR_VM_DRIVER_NOT_INSTALLED
00:18:35.707344 nspr-2   Saving settings file "/home/thaihieu/.config/VirtualBox/VirtualBox.xml" with version "1.12-linux"
00:18:35.755438 nspr-3   Saving settings file "/home/thaihieu/.config/VirtualBox/VirtualBox.xml" with version "1.12-linux"
00:18:35.774835 nspr-2   Saving settings file "/home/thaihieu/.config/VirtualBox/VirtualBox.xml" with version "1.12-linux"
