00:00:00.000202 main     VirtualBox XPCOM Server 6.1.38 r153438 linux.amd64 (Sep  1 2022 19:47:47) release log
00:00:00.000204 main     Log opened 2022-09-19T23:55:51.529449000Z
00:00:00.000204 main     Build Type: release
00:00:00.000207 main     OS Product: Linux
00:00:00.000208 main     OS Release: 5.19.9-arch1-1
00:00:00.000210 main     OS Version: #1 SMP PREEMPT_DYNAMIC Thu, 15 Sep 2022 16:08:26 +0000
00:00:00.000229 main     DMI Product Name: 20FAS22W00
00:00:00.000238 main     DMI Product Version: ThinkPad T460s
00:00:00.000243 main     Firmware type: UEFI
00:00:00.000730 main     Secure Boot: Disabled
00:00:00.000775 main     Host RAM: 3779MB (3.6GB) total, 3014MB (2.9GB) available
00:00:00.000778 main     Executable: /usr/lib/virtualbox/VBoxSVC
00:00:00.000779 main     Process ID: 6975
00:00:00.000779 main     Package type: LINUX_64BITS_GENERIC (OSE)
00:00:00.002349 main     IPC socket path: /tmp/.vbox-thaihieu-ipc/ipcd
00:00:00.109508 nspr-2   VirtualBox: object creation starts
00:00:00.109763 nspr-2   Home directory: '/home/thaihieu/.config/VirtualBox'
00:00:00.149287 nspr-2   NetIfAdpCtlOut: VBoxNetAdpCtl: Error while retrieving link speed for wlp4s0: VBoxNetAdpCtl: ioctl failed: Operation not supported
00:00:00.150640 nspr-2   HostDnsMonitor: initializing
00:00:00.151146 nspr-2   NAT: resolv.conf: nameserver 192.168.17.1
00:00:00.151169 nspr-2   HostDnsMonitor: updating information
00:00:00.151189 nspr-2   HostDnsMonitor: old information
00:00:00.151195 nspr-2     no server entries
00:00:00.151200 nspr-2     no domain set
00:00:00.151205 nspr-2     no search string entries
00:00:00.151210 nspr-2   HostDnsMonitor: new information
00:00:00.151215 nspr-2     server 1: 192.168.17.1
00:00:00.151221 nspr-2     no domain set
00:00:00.151226 nspr-2     no search string entries
00:00:00.154162 nspr-2   Failed to open "/dev/vboxdrvu", errno=2, rc=VERR_VM_DRIVER_NOT_INSTALLED
00:00:00.154383 nspr-2   VD: VDInit finished with VINF_SUCCESS
00:00:00.154474 nspr-2   ERROR [COM]: aRC=NS_ERROR_FAILURE (0x80004005) aIID={027bc463-929c-40e8-bf16-fea557cd8e7e} aComponent={SystemPropertiesWrap} aText={Cannot determine default Guest Additions ISO location. Most likely they are not available}, preserve=false aResultDetail=0
00:00:00.155063 nspr-2   VirtualBox: object created
00:00:05.694644 nspr-3   Failed to open "/dev/vboxdrvu", errno=2, rc=VERR_VM_DRIVER_NOT_INSTALLED
00:00:05.697371 nspr-3   Failed to open "/dev/vboxdrvu", errno=2, rc=VERR_VM_DRIVER_NOT_INSTALLED
00:00:37.465612 nspr-3   Saving settings file "/home/thaihieu/.config/VirtualBox/VirtualBox.xml" with version "1.12-linux"
00:00:37.491879 nspr-2   Saving settings file "/home/thaihieu/.config/VirtualBox/VirtualBox.xml" with version "1.12-linux"
00:00:37.516177 nspr-2   Saving settings file "/home/thaihieu/.config/VirtualBox/VirtualBox.xml" with version "1.12-linux"
00:00:37.573682 nspr-2   Saving settings file "/home/thaihieu/.config/VirtualBox/VirtualBox.xml" with version "1.12-linux"
00:00:37.604559 nspr-3   Saving settings file "/home/thaihieu/.config/VirtualBox/VirtualBox.xml" with version "1.12-linux"
00:00:37.627633 nspr-2   Saving settings file "/home/thaihieu/.config/VirtualBox/VirtualBox.xml" with version "1.12-linux"
00:00:37.645474 nspr-3   Saving settings file "/home/thaihieu/.config/VirtualBox/VirtualBox.xml" with version "1.12-linux"
00:00:43.231565 main     VirtualBox: object deletion starts
00:00:43.232231 main     HostDnsMonitor: shutting down ...
00:00:43.245232 main     HostDnsMonitor: shut down
00:00:43.673141 Watcher  ERROR [COM]: aRC=E_ACCESSDENIED (0x80070005) aIID={d0a0163f-e254-4e5b-a1f2-011cf991c38d} aComponent={VirtualBoxWrap} aText={The object is not ready}, preserve=false aResultDetail=0
00:00:48.245391 main     {00007f99400160a0} HostPowerServiceLinux::~HostPowerServiceLinux: RTThreadWait() for 5000 ms failed with VERR_TIMEOUT
00:00:48.245669 main     VirtualBox: object deleted
