00:00:00.003759 main     VirtualBox XPCOM Server 6.1.38 r153438 linux.amd64 (Sep  1 2022 19:47:47) release log
00:00:00.003762 main     Log opened 2022-09-20T13:32:34.414612000Z
00:00:00.003762 main     Build Type: release
00:00:00.003766 main     OS Product: Linux
00:00:00.003768 main     OS Release: 5.19.9-arch1-1
00:00:00.003771 main     OS Version: #1 SMP PREEMPT_DYNAMIC Thu, 15 Sep 2022 16:08:26 +0000
00:00:00.003800 main     DMI Product Name: 20FAS22W00
00:00:00.003813 main     DMI Product Version: ThinkPad T460s
00:00:00.003820 main     Firmware type: UEFI
00:00:00.004251 main     Secure Boot: Disabled
00:00:00.004301 main     Host RAM: 3779MB (3.6GB) total, 2775MB (2.7GB) available
00:00:00.004304 main     Executable: /usr/lib/virtualbox/VBoxSVC
00:00:00.004305 main     Process ID: 3954
00:00:00.004306 main     Package type: LINUX_64BITS_GENERIC (OSE)
00:00:00.006865 main     IPC socket path: /tmp/.vbox-thaihieu-ipc/ipcd
00:00:00.120757 nspr-2   VirtualBox: object creation starts
00:00:00.121071 nspr-2   Home directory: '/home/thaihieu/.config/VirtualBox'
00:00:00.124686 nspr-2   Loading settings file "/home/thaihieu/.config/VirtualBox/VirtualBox.xml" with version "1.12-linux"
00:00:00.168305 nspr-2   NetIfAdpCtlOut: VBoxNetAdpCtl: Error while retrieving link speed for wlp4s0: VBoxNetAdpCtl: ioctl failed: Operation not supported
00:00:00.171601 nspr-2   HostDnsMonitor: initializing
00:00:00.171891 nspr-2   NAT: resolv.conf: nameserver 192.168.99.1
00:00:00.171913 nspr-2   HostDnsMonitor: updating information
00:00:00.171933 nspr-2   HostDnsMonitor: old information
00:00:00.171938 nspr-2     no server entries
00:00:00.171942 nspr-2     no domain set
00:00:00.171945 nspr-2     no search string entries
00:00:00.171949 nspr-2   HostDnsMonitor: new information
00:00:00.171953 nspr-2     server 1: 192.168.99.1
00:00:00.171957 nspr-2     no domain set
00:00:00.171961 nspr-2     no search string entries
00:00:00.183078 nspr-2   VD: VDInit finished with VINF_SUCCESS
00:00:00.185069 nspr-2   ERROR [COM]: aRC=NS_ERROR_FAILURE (0x80004005) aIID={027bc463-929c-40e8-bf16-fea557cd8e7e} aComponent={SystemPropertiesWrap} aText={Cannot determine default Guest Additions ISO location. Most likely they are not available}, preserve=false aResultDetail=0
00:00:00.186492 nspr-2   VirtualBox: object created
00:00:09.192338 nspr-2   Saving settings file "/home/thaihieu/.config/VirtualBox/VirtualBox.xml" with version "1.12-linux"
00:00:09.215245 nspr-2   Saving settings file "/home/thaihieu/.config/VirtualBox/VirtualBox.xml" with version "1.12-linux"
00:00:14.758394 main     VirtualBox: object deletion starts
00:00:14.759197 main     HostDnsMonitor: shutting down ...
00:00:14.760326 main     HostDnsMonitor: shut down
00:00:15.191331 Watcher  ERROR [COM]: aRC=E_ACCESSDENIED (0x80070005) aIID={d0a0163f-e254-4e5b-a1f2-011cf991c38d} aComponent={VirtualBoxWrap} aText={The object is not ready}, preserve=false aResultDetail=0
00:00:19.760597 main     {00007f98300175d0} HostPowerServiceLinux::~HostPowerServiceLinux: RTThreadWait() for 5000 ms failed with VERR_TIMEOUT
00:00:19.760912 main     VirtualBox: object deleted
